{
	"controller" : "192.168.0.200",
	"colors" : {
		"black" : [ 0, 0, 0 ],
		"red" : [ 192, 0, 0 ],
		"green" : [ 0, 192, 0 ],
		"blue" : [ 0, 0, 255 ],
		"lightblue" : [ 128, 128, 255 ],
		"white" : [ 255, 255, 128 ],
		"yellow" : [ 186, 113, 0 ],
		"orange" : [ 255, 64, 0 ],
		"brown" : [ 47, 13, 0 ],
		"purple" : [ 255, 0, 96 ]
	},
	"effects" : {
		"blink" : "bl",
		"wipe" : "wi",
		"fade" : "fa",
		"strobe" : "st",
		"chase_left" : "cf",
		"chase_right" : "cr"
	},
	"sequences" : {
		"christmas" : [
			{
				"colors" : [ "red", "white", "green", "white" ],
				"effects" : { "chase_right" : 20 },
				"multiply" : 3
			},
			{
				"colors" : [ "red", "white", "green" ],
				"effects" : { "twinkle" : 20 },
				"multiply" : 2
			},
			{
				"colors" : [ "red", "white", "green" ]
			},
			{
				"colors" : [ "red", "white" ],
				"effects" : { "chase_right" : 20 },
				"multiply" : 3
			},
			{
				"colors" : [ "red", "red", "white", "white", "white", "white", "white", "white", "white", "white", "white", "white" ],
				"effects" : { "chase_right" : 20 }
			}
		],
		"thanksgiving" : [
			{
				"colors" : [ "yellow", "orange", "brown" ],
				"effects" : { "chase_right" : 20 },
				"multiply" : 3
			}
		],
		"halloween" : [
			{
				"colors" : [ "yellow", "orange", "white", "orange" ],
				"effects" : { "chase_right" : 20 },
				"multiply" : 3
			}
		],
		"patriotic" : [
			{
				"colors" : [ "blue", "white", "red", "white" ],
				"effects" : { "chase_right" : 20 },
				"multiply" : 3
			}
		]
	}
}

